[gd_scene load_steps=3 format=2]

[ext_resource path="res://components/level_zone/level_zone.gd" type="Script" id=1]

[sub_resource type="BoxShape" id=1]

[node name="level_zone" type="Area"]
gravity = 9.81
script = ExtResource( 1 )

[node name="level_zone_shape" type="CollisionShape" parent="."]
shape = SubResource( 1 )
